{
  "required": true,
  "package": "com.alexfh.pycraft.mixin",
  "compatibilityLevel": "JAVA_8",
  "minVersion": "0.8",
  "client": [
    "MixinClassList",
    "MixinGLFW",
    "MixinMinecraftClient"
  ],
  "mixins": [
  ],
  "injectors": {
    "defaultRequire": 1
  }
}
